[
    {
        "brand":"realme",
        "manufacturer":"realme",
        "project":"2070C",
        "name":"default",
        "product":"RMX3242",
        "device":"RE513CL1",
        "model":"RMX3242",
        "first_api_level":"30"
    }
]
